…
```r
## Compare clusters to identify the most significant genes in determining their identity
renew_naive_markers = FALSE
if (!file.exists("./files/markers_rds/naive_markers.rds") | renew_naive_markers == TRUE) {
  naive.markers <- FindAllMarkers(naive.integrated, only.pos = TRUE, min.pct = 0.25, logfc.threshold = 0.25)
  write_rds(naive.markers, "./files/markers_rds/naive_markers.rds")
  write.csv(naive.markers, "./files/csv_xlsx_files/naive_markers.csv", row.names = TRUE, append = FALSE)
} else {
  naive.markers <- read_rds("./files/markers_rds/naive_markers.rds")
}
naive.markers %>% group_by(cluster) %>% top_n(n = 4, wt = avg_logFC) # top 4 cluster defining genes for each cluster
```

```
## # A tibble: 60 x 7
## # Groups:   cluster [15]
##        p_val avg_logFC pct.1 pct.2 p_val_adj cluster gene   
##        <dbl>     <dbl> <dbl> <dbl>     <dbl> <fct>   <chr>  
##  1 0.            0.950 0.799 0.619 0.        0       Thbs1  
##  2 0.            0.808 0.882 0.788 0.        0       Creg1  
##  3 2.58e-261     1.12  0.273 0.095 4.44e-257 0       Ear6   
##  4 1.04e-256     0.821 0.636 0.486 1.79e-252 0       Slc7a11
##  5 0.            1.89  0.878 0.287 0.        1       Csf3r  
##  6 0.            1.65  0.699 0.116 0.        1       Cxcr2  
##  7 0.            1.61  0.836 0.365 0.        1       Il1r2  
##  8 1.35e-298     1.45  0.413 0.167 2.32e-294 1       Ly6a   
##  9 0.            2.38  1     0.79  0.        2       Mmp12  
## 10 0.            1.97  0.998 0.513 0.        2       Lpl    
## # … with 50 more rows
```
…
